id,x
1,0.0
2,0.0
3,0.0
4,0.0
5,18.325798
6,15.862957
7,32.148605
8,40.075066
9,19.48942
10,22.646027
11,19.02239
12,76.66039
13,26.462187
14,24.106853
15,15.207585
16,10.721325
17,64.917145
18,7.5882845
19,10.893638
20,28.649277
21,24.211271
22,31.533539
23,21.59476
24,23.410706
25,33.614773
26,27.477257
27,17.199383
28,27.048733
29,18.321083
30,42.846447
31,25.89939
32,14.277649
33,17.218998
34,18.505466
35,34.86085
36,20.172983
37,20.386675
38,30.051552
39,45.844307
40,18.822737
41,23.164703
42,29.80867
43,28.594791
44,16.323551
45,32.866383
46,27.06492
47,22.087698
48,22.509537
49,21.52975
50,0.0
51,0.0
52,0.0
53,0.0
54,0.0
55,24.978842
56,14.306836
57,14.881209
58,17.6074
59,19.756956
60,26.602522
61,21.4903
62,18.95613
63,21.40588
64,13.182192
65,24.327082
66,27.053684
67,26.859531
68,28.494104
69,27.072302
70,26.347334
71,20.54618
72,31.573797
73,18.059597
74,30.130705
75,26.398401
76,17.036037
77,43.78256
78,22.588884
79,20.323061
80,15.502214
81,28.586468
82,20.470736
83,53.09532
84,28.971102
85,33.364513
86,27.752935
87,22.955853
88,28.129612
89,16.256264
90,20.998714
91,18.896029
92,16.686188
93,31.635675
94,21.116346
95,26.237617
96,21.937817
97,22.154161
98,19.380276
99,18.849745
100,19.718626
101,24.16835
102,16.091757
103,19.561903
104,21.516706
105,23.833065
106,26.841728
107,21.638687
108,24.147047
109,18.806585
110,20.29939
111,16.914883
112,21.900963
113,19.576286
114,17.409706
115,22.39812
116,20.211063
117,24.985725
118,26.98631
119,22.15594
120,19.376604
121,22.967949
122,27.33818
123,30.32575
124,21.129486
125,18.343367
126,18.704706
127,21.354296
128,21.310854
129,19.160688
130,26.152626
131,24.731304
132,15.493336
133,27.209478
134,15.673489
135,25.95158
136,27.500645
137,26.434961
138,25.028345
139,17.975054
140,22.166264
141,27.68168
142,19.417292
143,21.714617
144,22.163088
145,20.357248
146,32.19097
147,19.76009
148,25.921604
149,22.935577
150,40.309753
151,20.500612
152,33.629086
153,35.77221
154,31.383873
155,20.911182
156,19.129538
157,14.299452
158,19.289232
159,12.025145
160,19.946016
161,34.575603
162,20.416197
163,18.967695
164,30.951138
165,26.656374
166,25.108837
167,15.695569
168,24.86176
169,19.430298
170,34.49805
171,30.860468
172,17.371956
173,18.728918
174,19.28593
175,12.990134
176,14.052843
177,18.967905
178,24.866924
179,0.0
180,0.0
181,0.0
182,0.0
183,0.0
184,0.0
185,13.903073
186,23.578884
187,14.5571
188,30.152143
189,31.778746
190,29.625528
191,46.312737
192,50.371525
193,17.981104
194,19.237293
195,24.692846
196,12.782543
197,17.329794
198,23.83737
199,17.76731
200,19.61415
201,16.167604
202,14.04429
203,18.982494
204,17.801079
205,20.810328
206,23.486567
207,18.593887
208,14.4728
209,33.739166
210,25.826172
211,15.5452
212,16.35228
213,19.357288
214,19.929337
215,23.000557
216,20.693378
217,18.606024
218,14.643195
219,27.613943
220,28.017458
221,24.25334
222,27.800694
223,29.043734
224,19.027464
225,30.898289
226,55.813374
227,18.712843
228,23.05765
229,14.760422
230,24.39458
231,29.127329
232,33.211582
233,27.308676
234,24.94251
235,28.06073
236,29.242624
237,25.878265
238,32.08235
239,18.903677
240,29.110636
241,18.16391
242,9.76169
243,14.908266
244,21.05915
245,21.215887
246,18.778498
247,31.572935
248,33.413864
249,37.1214
250,31.587067
251,17.765652
252,32.17332
253,32.70779
254,24.495733
255,25.20357
256,25.04674
257,19.12117
258,17.815935
259,20.16205
260,16.744192
261,16.943937
262,24.524963
263,26.893953
264,25.881868
265,26.953821
266,17.964588
267,30.664162
268,28.264818
269,0.0
270,20.80415
271,30.401445
272,18.02066
273,26.512123
274,20.698399
275,25.266153
276,24.424343
277,21.226282
278,19.191967
279,20.528418
280,19.484783
281,22.137423
282,27.17159
283,24.630547
284,19.353676
285,24.016232
286,23.4538
287,21.233402
288,25.018124
289,22.005268
290,30.362598
291,25.552946
292,22.37606
293,35.620438
294,17.703857
295,31.772045
296,0.0
297,0.0
298,0.0
299,0.0
300,19.371822
301,28.40798
302,17.882198
303,0.0
304,22.196901
305,20.886919
306,42.01856
307,16.735445
308,19.735146
309,41.29387
310,18.551884
311,14.645439
312,18.396729
313,16.133032
314,22.451817
315,23.25638
316,19.140104
317,19.76684
318,23.954977
319,21.308846
320,22.731361
321,18.175804
322,20.127274
323,31.338852
324,26.083817
325,23.148663
326,23.893381
327,21.75911
328,35.608856
329,28.604843
330,27.761526
331,24.507751
332,25.380346
333,21.29396
334,25.508522
335,14.440201
336,20.221924
337,19.35008
338,25.854227
339,20.894224
340,25.753841
341,19.09635
342,20.300056
343,0.0
344,0.0
345,18.109472
346,17.528416
347,15.099444
348,26.21884
349,26.734856
350,31.416145
351,32.170876
352,20.321186
353,25.511393
354,27.818571
355,24.820913
356,23.313906
357,0.0
358,0.0
359,0.0
360,0.0
361,20.391766
362,25.157328
363,14.113411
364,26.220375
365,16.606733
366,22.956547
367,14.07081
368,18.703539
369,24.542908
370,22.018538
371,13.490871
372,28.307745
373,22.530827
374,23.952305
375,39.559566
376,36.139626
377,16.00398
378,17.866688
379,23.606955
380,30.147726
381,25.062529
382,21.787926
383,24.058046
384,22.855972
385,15.268519
386,24.714975
387,41.268116
388,30.629211
389,23.178022
390,42.200905
391,43.464397
392,0.0
393,0.0
394,0.0
395,0.0
396,0.0
397,2.4765043
398,8.867175
399,5.6205115
400,6.1635833
401,6.2595706
402,10.421196
403,7.5590105
404,3.651475
405,18.142239
406,16.78994
407,20.395079
408,16.927715
409,19.884815
410,24.336695
411,24.143562
412,20.240004
413,17.694727
414,23.361101
415,25.318121
416,22.252028
417,19.941488
418,23.216904
419,27.615145
420,31.880232
421,22.857864
422,28.359957
423,33.97836
424,28.834055
425,41.069305
426,23.080942
427,20.951715
428,15.784458
429,15.109321
430,12.0558405
431,22.414583
432,22.69224
433,7.271486
434,15.207585
435,16.925196
436,16.884005
437,24.05689
438,28.397415
439,29.381859
440,25.754498
441,24.706522
442,28.465555
443,26.010107
444,29.136604
445,0.0
446,0.0
447,19.596699
448,19.644018
449,22.76901
450,24.140831
451,23.323977
452,25.206182
453,15.525339
454,21.269417
455,26.462975
456,30.146265
457,21.825876
458,20.285307
459,21.069464
460,14.832082
461,19.557146
462,35.90667
463,21.880121
464,13.846402
465,17.06678
466,27.709465
467,34.24834
468,15.531483
469,17.542667
470,22.561998
471,18.569168
472,20.09395
473,21.934149
474,33.892593
475,19.13654
476,14.708394
477,20.62142
478,5.407136
479,9.056163
480,16.76945
481,15.207585
482,1.8463168
483,13.83476
484,15.74035
485,19.781038
486,22.883802
487,13.475741
488,21.297892
489,33.650913
490,21.143055
491,24.547928
492,15.331075
493,17.621355
494,19.433146
495,21.062414
496,26.58811
497,21.926395
498,10.583358
499,25.833475
500,18.192728
501,17.47803
502,25.232965
503,23.65597
504,21.323952
505,25.615242
506,15.789774
507,24.287998
508,20.100494
509,23.709576
510,22.645397
511,20.067724
512,21.050728
513,26.353989
514,19.769875
515,29.121044
516,34.603973
517,23.621368
518,15.986847
519,28.164757
520,20.432674
521,20.87263
522,1.5453513
523,4.811174
524,52.019176
525,0.0
526,0.0
527,23.565401
528,26.536018
529,20.596193
530,15.24317
531,20.21183
532,20.591852
533,24.947157
534,11.48297
535,18.849964
536,18.165518
537,18.460682
538,20.761732
539,19.430462
540,26.751476
541,24.768465
542,19.593103
543,14.727947
544,25.926786
545,16.569014
546,25.902342
547,22.69769
548,21.07615
549,26.169228
550,29.471972
551,35.703884
552,22.595514
553,23.77985
554,0.0
555,0.0
556,21.364721
557,22.91615
558,19.192463
559,33.2203
560,18.214207
561,19.64594
562,19.864323
563,14.456522
564,40.362522
565,18.882217
566,0.0
567,2.9570131
568,6.1995482
569,22.190952
570,22.09311
571,19.409334
572,22.211664
573,24.059864
574,22.306412
575,13.458485
576,13.244451
577,18.792145
578,26.330313
579,16.891695
580,6.993621
581,7.6412463
582,20.712122
583,25.862907
584,30.048769
585,23.136833
586,31.63918
587,28.81789
588,26.982944
589,23.202326
590,19.16732
591,26.03054
592,26.768576
593,24.198505
594,22.370274
595,21.579422
596,19.96468
597,17.420502
598,26.463102
599,28.620686
600,26.01234
601,24.211672
602,17.537651
603,26.770344
604,25.98672
605,19.749949
606,11.029392
607,20.82949
608,29.152008
609,8.735632
610,22.824255
611,20.481422
612,20.702612
613,19.31901
614,22.105032
615,25.964554
616,15.944898
617,22.653051
618,21.945503
619,23.499575
620,35.47481
621,22.056948
622,28.914967
623,22.121244
624,21.854618
625,24.018623
626,25.975285
627,22.19127
628,23.42209
629,21.872393
630,19.425247
631,22.52115
632,20.272326
633,20.17958
634,24.312859
635,33.70961
636,26.560322
637,18.448357
638,20.205063
639,21.992102
640,21.18558
641,19.99598
642,26.880396
643,19.894806
644,24.469578
645,30.51514
646,21.329685
647,22.997211
648,13.034302
649,11.967347
650,7.6412463
651,25.285707
652,14.1503
653,21.605753
654,39.71934
655,33.605114
656,26.312721
657,19.62499
658,27.704475
659,27.303354
660,22.981642
661,24.605738
662,20.307325
663,21.334927
664,16.65619
665,20.146824
666,18.750433
667,23.440935
668,24.396461
669,28.006735
670,22.551771
671,21.17153
672,29.843613
673,48.288906
674,49.523212
675,21.970798
676,23.59631
677,20.496668
678,21.225721
679,20.848312
680,23.225151
681,22.063131
682,22.056114
683,29.913616
684,25.738123
685,11.342482
686,8.029038
687,18.270988
688,20.289677
689,19.853106
690,21.078947
691,28.39289
692,22.590746
693,22.529177
694,21.683908
695,22.414904
696,5.374664
697,25.657578
698,18.815592
699,20.119642
700,18.454292
701,16.753845
702,21.621168
703,22.859726
704,27.691824
705,28.180733
706,24.197165
707,21.296358
708,24.37598
709,19.25662
710,19.952602
711,22.69276
712,25.0032
713,25.332306
714,19.405067
715,20.630121
716,19.623276
717,21.919817
718,20.22257
719,18.1066
720,24.066303
721,22.291433
722,18.344494
723,24.494099
724,27.660826
725,32.805107
726,17.671276
727,29.495264
728,27.101137
729,18.715147
730,19.683203
731,17.394745
732,45.019337
733,19.122734
734,21.38256
735,27.100643
736,19.930925
737,19.541113
738,31.344694
739,31.168268
740,30.935442
741,25.78711
742,23.954227
743,22.094252
744,20.11032
745,19.158932
746,23.46426
747,17.108173
748,17.983185
749,20.843372
750,16.113308
751,16.212685
752,16.158283
753,26.9309
754,29.837042
755,19.14302
756,24.484413
757,17.080168
758,23.720474
759,23.510765
760,21.94338
761,18.898201
762,26.585173
763,29.117405
764,6.6030245
765,6.8104014
766,9.585984
767,12.402699
768,22.68876
769,24.5844
770,19.521074
771,22.174164
772,26.466825
773,23.947975
774,20.793066
775,19.019278
776,18.212727
777,18.736841
778,18.844114
779,23.896631
780,24.461126
781,17.804554
782,18.45681
783,18.758198
784,6.905744
785,3.0193727
786,25.198921
787,25.511887
788,17.647476
789,16.887838
790,18.131958
791,21.246075
792,22.15828
793,24.335922
794,16.841661
795,23.10084
796,24.792086
797,32.533817
798,24.542112
799,17.578747
800,21.697306
801,24.880451
802,20.019783
803,20.699251
804,24.208748
805,24.858587
806,16.331245
807,17.449524
808,21.754456
809,22.152578
810,17.745522
811,26.580315
812,31.668621
813,15.535097
814,17.838718
815,21.52869
816,18.814028
817,18.53661
818,19.312733
819,21.172665
820,34.102757
821,32.0219
822,24.119125
823,24.546669
824,17.98313
825,18.298763
826,16.112328
827,16.1833
828,19.340906
829,16.254093
830,19.871622
831,25.055298
832,24.928259
833,15.754299
834,17.262262
835,18.345945
836,25.161516
837,24.717997
838,18.724945
839,16.317068
840,24.589577
841,25.870787
842,19.102774
843,25.308653
844,18.068527
845,27.326448
846,27.667538
847,21.551428
848,17.819626
849,17.335411
850,24.785217
851,21.621723
852,22.842594
853,24.275642
854,6.0752454
855,16.892378
856,16.962767
857,23.668941
858,19.581913
859,24.956062
860,17.46778
861,24.558235
862,22.540144
863,24.723457
864,24.531706
865,22.154642
866,16.446089
867,18.36233
868,17.115383
869,24.660938
870,23.9112
871,24.04091
872,28.150192
873,31.809683
874,20.488165
875,19.466125
876,26.646744
877,31.54894
878,20.0014
879,22.460056
880,22.583197
881,27.419598
882,23.233847
883,16.300661
884,18.473118
885,22.350597
886,19.314026
887,20.502771
888,22.545982
889,23.1438
890,21.262268
891,22.409819
892,19.952812
893,17.843353
894,20.09974
895,16.960749
896,22.220037
897,20.178862
898,26.651155
899,27.49689
900,19.966398
901,20.687767
902,23.90537
903,20.900404
904,25.40764
905,30.039413
906,17.31483
907,20.226856
908,21.354216
909,17.998625
910,18.343014
911,17.128567
912,23.852167
913,30.631647
914,22.62166
915,21.154203
916,19.862448
917,6.341994
918,21.78358
919,23.061186
920,21.940943
921,17.059225
922,21.399544
923,23.558859
924,20.787836
925,24.544483
926,19.972294
927,21.604952
928,17.80257
929,16.550325
930,21.479988
931,18.137873
932,20.37851
933,22.799603
934,19.406885
935,17.81408
936,20.8102
937,19.971783
938,28.842213
939,25.99787
940,25.494473
941,16.413088
942,20.101362
943,21.67148
944,18.463804
945,24.788338
946,7.0076466
947,17.220772
948,23.58313
949,21.149382
950,23.759674
951,24.270763
952,24.729893
953,23.812895
954,22.750969
955,17.509178
956,22.868029
957,21.658052
958,18.55409
959,23.562523
960,22.264065
961,19.800106
962,20.201902
963,25.212385
964,19.445845
965,26.881737
966,27.254124
967,19.952806
968,18.765884
969,22.083948
970,19.61434
971,21.543068
972,29.877314
973,23.074024
974,25.116537
975,17.91136
976,19.003075
977,7.740696
978,9.376273
979,7.4642143
980,10.376941
981,22.114752
982,24.291174
983,20.775215
984,19.265972
985,18.972778
986,16.6355
987,21.338158
988,21.656456
989,17.388985
990,23.044855
991,19.862593
992,18.753006
993,19.847963
994,25.212881
995,17.800297
996,17.708513
997,18.740412
998,23.098078
999,17.964222
1000,22.496204
1001,20.59753
1002,22.877703
1003,28.913313
1004,28.539808
1005,21.201374
1006,21.887959
1007,6.569458
1008,25.682692
1009,22.347586
1010,24.48362
1011,19.198906
1012,19.532188
1013,17.282822
1014,29.748018
1015,26.366646
1016,26.868366
1017,25.076117
1018,21.090397
1019,22.516338
1020,17.49612
1021,19.894577
1022,33.81229
1023,26.09983
1024,23.774092
1025,17.433435
1026,17.393473
1027,24.789747
1028,26.074995
1029,26.696505
1030,25.288225
1031,21.327105
1032,28.200819
1033,19.898012
1034,17.607761
1035,24.555666
1036,29.316658
1037,24.533392
1038,21.139103
1039,27.696033
1040,23.276152
1041,23.361063
1042,22.145296
1043,22.26085
1044,19.951855
1045,21.8661
1046,23.104803
1047,22.520994
1048,15.002982
1049,17.69311
1050,26.456701
1051,23.144384
1052,17.05317
1053,19.950333
1054,24.889309
1055,24.23317
1056,28.272778
1057,20.717575
1058,21.503618
1059,17.536802
1060,16.843903
1061,21.629177
1062,24.361912
1063,21.82959
1064,29.13253
1065,20.500582
1066,26.048918
1067,25.218727
1068,22.223936
1069,26.529947
1070,8.842997
1071,45.19287
1072,37.831196
1073,27.5892
1074,20.32286
1075,24.051727
1076,23.619425
1077,23.960299
1078,21.998127
1079,23.280685
1080,20.268494
1081,19.400085
1082,30.777815
1083,23.985355
1084,26.23874
1085,17.360456
1086,17.478539
1087,19.490284
1088,22.985245
1089,23.632532
1090,23.5212
1091,19.489653
1092,23.744116
1093,17.019129
1094,16.199293
1095,18.785614
1096,17.789436
1097,24.389225
1098,21.65037
1099,17.536802
1100,23.205076
1101,27.001783
1102,26.570066
1103,24.258665
1104,18.04424
1105,20.575598
1106,26.2665
1107,22.609016
1108,21.106771
1109,24.820831
1110,22.464512
1111,22.528473
1112,23.093367
1113,24.386608
1114,20.742994
1115,22.725922
1116,25.08151
1117,26.947065
1118,23.121634
1119,28.58363
1120,19.95256
1121,17.860003
1122,18.203356
1123,17.019585
1124,18.026747
1125,16.59099
1126,17.19133
1127,19.055222
1128,23.6646
1129,23.721273
1130,19.600689
1131,21.287777
1132,25.387287
1133,20.011612
1134,26.73211
1135,23.500633
1136,16.209671
1137,17.720165
1138,17.238775
1139,24.152922
1140,22.325483
1141,17.223913
1142,18.143013
1143,22.545301
1144,17.425808
1145,25.050444
1146,21.783003
1147,25.30922
1148,26.793697
1149,18.193214
1150,23.146027
1151,24.015333
1152,22.721605
1153,24.424858
1154,26.088743
1155,22.102077
1156,24.478886
1157,22.267864
1158,22.984299
1159,15.693421
1160,17.17788
1161,22.84849
1162,23.905184
1163,21.525473
1164,20.696644
1165,21.039467
1166,22.81952
1167,23.571985
1168,20.0947
1169,27.484394
1170,27.37828
1171,16.956413
1172,18.07622
1173,29.366348
1174,23.097057
1175,22.821657
1176,22.382565
1177,22.235655
1178,22.856031
1179,28.871841
1180,17.437891
1181,23.78075
1182,20.705738
1183,21.643389
1184,24.154272
1185,16.655348
1186,21.869728
1187,23.838665
1188,26.259157
1189,17.54862
1190,23.37689
1191,19.058567
1192,20.359938
1193,27.585121
1194,22.06575
1195,24.963812
1196,9.492557
1197,23.752417
1198,23.198946
1199,17.842047
1200,24.109009
1201,26.131096
1202,16.17048
1203,23.967188
1204,25.19427
1205,25.65771
1206,27.460814
1207,28.15601
1208,26.093483
1209,18.596563
1210,21.030746
1211,22.311726
1212,23.663761
1213,21.867147
1214,22.306046
1215,17.719847
1216,17.874748
1217,21.666084
1218,19.728392
1219,21.03167
1220,21.642452
1221,22.645142
1222,22.367832
1223,17.658869
1224,22.664095
1225,18.290386
1226,19.42691
1227,24.816395
1228,21.478334
1229,16.826544
1230,18.428204
1231,22.404482
1232,22.05693
1233,19.58003
1234,26.501932
1235,29.594555
1236,22.67817
1237,20.743687
1238,20.36514
1239,42.024765
1240,39.869144
1241,25.086418
1242,16.385962
1243,18.360104
1244,17.05036
1245,17.94563
1246,17.545662
1247,24.986305
1248,19.020702
1249,17.750286
1250,22.109282
1251,21.356575
1252,23.959562
1253,25.180609
1254,28.467009
1255,19.07199
1256,18.147894
1257,18.388779
1258,20.520823
1259,25.69478
1260,24.613842
1261,21.366232
1262,18.994799
1263,17.989006
1264,21.04509
1265,18.125362
1266,12.566739
1267,19.76678
1268,24.304276
1269,17.73135
1270,17.85765
1271,30.697388
1272,18.588488
1273,26.845848
1274,27.464027
1275,17.570362
1276,17.614147
1277,24.438194
1278,17.740877
1279,24.714119
1280,20.593897
1281,20.769033
1282,18.249132
1283,15.401692
1284,21.740902
1285,24.969248
1286,26.233418
1287,26.901865
1288,25.859337
1289,22.109806
1290,21.432503
1291,25.071026
1292,21.818586
1293,19.72362
1294,20.063545
1295,18.190344
1296,18.14661
1297,18.347612
1298,24.195887
1299,19.937298
1300,17.75638
1301,28.29759
1302,22.966986
1303,24.411251
1304,27.351748
1305,25.5111
1306,24.321304
1307,26.217964
1308,19.248528
1309,24.534437
1310,23.200035
1311,24.299156
1312,18.518417
1313,22.783903
1314,26.707266
1315,18.9225
1316,17.777508
1317,26.143877
1318,26.967884
1319,19.163414
1320,16.40468
1321,22.038586
1322,21.484669
1323,25.70316
1324,24.660896
1325,18.516817
1326,17.892616
1327,17.89025
1328,17.881624
1329,16.698643
1330,17.915968
1331,17.99497
1332,18.050013
1333,17.976768
1334,25.427866
1335,23.899393
1336,20.038599
1337,21.881298
1338,21.096096
1339,24.479212
1340,20.790047
1341,21.937769
1342,21.786436
1343,20.49853
1344,22.023016
1345,17.676199
1346,24.228312
1347,20.91947
1348,16.903358
1349,17.371784
1350,18.184677
1351,17.87814
1352,19.496525
1353,20.681639
1354,27.372248
1355,21.578537
1356,19.196796
1357,18.89237
1358,17.812862
1359,18.313747
1360,29.019667
1361,22.138199
1362,7.706518
1363,19.463097
1364,22.469769
1365,18.130468
1366,21.067562
1367,23.360254
1368,22.008955
1369,18.233818
1370,28.794832
1371,24.770716
1372,18.546076
1373,20.917198
1374,22.934326
1375,25.02661
1376,18.689646
1377,15.160937
1378,18.952766
1379,21.140882
1380,18.997269
1381,20.343475
1382,22.355083
1383,23.776754
1384,20.733927
1385,24.291792
1386,21.551039
1387,22.78271
1388,28.492748
1389,22.288548
1390,19.199696
1391,14.275528
1392,20.5814
1393,24.601051
1394,21.672596
1395,17.272741
1396,16.96526
1397,23.12156
1398,22.183044
1399,28.154928
1400,14.856063
1401,20.647963
1402,16.665344
1403,17.140484
1404,18.7084
1405,17.59905
1406,16.032417
1407,19.451561
1408,23.82229
1409,23.269737
1410,19.347576
1411,20.646063
1412,19.141066
1413,24.69309
1414,24.26528
1415,43.756966
1416,40.833115
1417,24.055838
1418,21.745087
1419,19.328825
1420,19.843906
1421,21.338259
1422,25.257828
1423,22.329422
1424,20.498072
1425,20.596397
1426,16.893232
1427,17.617094
1428,20.898153
1429,23.660065
1430,21.673933
1431,20.758184
1432,18.439653
1433,36.849022
1434,40.06083
1435,27.666145
1436,18.469213
1437,36.05591
1438,18.96189
1439,18.11559
1440,15.137637
1441,22.390358
1442,18.072693
1443,20.506624
1444,19.50795
1445,17.503483
1446,18.916286
1447,20.784153
1448,20.752792
1449,23.795261
1450,26.415634
1451,29.487064
1452,32.60786
1453,23.916548
1454,23.604725
1455,33.68695
1456,22.266832
1457,19.416096
1458,20.68188
1459,18.643064
1460,18.514896
1461,20.050491
1462,20.019997
1463,23.44845
1464,20.737387
1465,26.594933
1466,21.50047
1467,20.021967
1468,14.791013
1469,17.258299
1470,21.493792
1471,19.68094
1472,16.100441
1473,19.819935
1474,16.676964
1475,22.914324
1476,19.217667
1477,23.901857
1478,31.678013
1479,30.35021
1480,16.317305
1481,28.942945
1482,22.451206
1483,21.42737
1484,21.506386
1485,15.071208
1486,23.03309
1487,21.974762
1488,16.559284
1489,20.04006
1490,15.398511
1491,14.195399
1492,22.914324
1493,21.593504
1494,20.829824
1495,18.920624
1496,22.113073
1497,25.174555
1498,17.900053
1499,19.04273
1500,20.01659
1501,20.683418
1502,20.930578
1503,22.239002
1504,21.850857
1505,17.108397
1506,33.334187
1507,25.412922
1508,18.06043
1509,21.737827
1510,26.278229
1511,31.726452
1512,23.032206
1513,29.54073
1514,17.807602
1515,21.497568
1516,16.583385
1517,20.726608
1518,47.12468
1519,16.126495
1520,21.15811
1521,22.574806
1522,20.700262
1523,22.09318
1524,18.501919
1525,19.079685
1526,20.438007
1527,17.752785
1528,20.494438
1529,20.552635
1530,18.542404
1531,18.112825
1532,25.216036
1533,22.989094
1534,20.134981
1535,18.812395
1536,22.933949
1537,25.69546
1538,25.522219
1539,28.96237
1540,28.10556
1541,29.463362
1542,28.546139
1543,21.360771
1544,20.563353
1545,24.192036
1546,21.674223
1547,30.451715
1548,21.15103
1549,23.606762
1550,25.443428
1551,25.43365
1552,19.26421
1553,19.701303
1554,18.41146
1555,18.722948
1556,26.518936
1557,23.877
1558,23.634104
1559,24.963573
1560,16.390892
1561,15.8435
1562,19.005404
1563,20.218561
1564,15.491531
1565,22.261223
1566,21.734259
1567,45.154778
1568,19.088549
1569,21.939133
1570,18.334951
1571,18.180204
1572,17.806095
1573,20.031033
1574,27.880962
1575,39.12813
1576,20.13192
1577,20.95435
1578,24.165356
1579,23.179552
1580,18.030191
1581,15.854654
1582,22.062439
1583,31.376844
1584,19.832457
1585,25.843235
1586,17.512566
1587,17.07994
1588,17.405659
1589,18.032726
1590,38.452698
1591,22.941742
1592,17.923359
1593,19.400291
1594,20.105024
1595,24.80841
1596,20.148811
1597,18.120485
1598,26.770046
1599,27.950922
1600,17.755648
1601,17.747076
1602,20.02542
1603,24.44883
1604,23.370577
1605,19.201715
1606,24.433853
1607,26.178041
1608,19.850811
1609,23.357794
1610,20.292852
1611,20.872324
1612,21.713978
1613,17.600239
1614,26.080437
1615,20.680977
1616,22.548176
1617,18.252707
1618,21.94192
1619,22.666023
1620,17.814869
1621,21.178358
1622,25.183344
1623,29.928373
1624,21.07274
1625,20.963917
1626,21.107475
1627,22.905516
1628,22.108765
1629,25.799448
1630,22.100275
1631,16.401316
1632,19.937326
1633,23.384298
1634,26.894077
1635,22.505249
1636,19.344599
1637,19.78559
1638,18.87972
1639,15.5541
1640,17.142595
1641,21.192648
1642,23.878067
1643,21.48554
1644,18.664106
1645,21.733892
1646,25.837614
1647,27.054178
1648,18.333117
1649,21.405783
1650,18.533913
1651,20.10821
1652,21.00119
1653,22.253265
1654,21.72011
1655,23.652395
1656,20.126112
1657,28.52172
1658,22.9174
1659,15.232607
1660,19.067455
1661,17.973091
1662,16.378838
1663,15.7661085
1664,23.020199
1665,21.87217
1666,20.865105
1667,17.559572
1668,15.364569
1669,17.275827
1670,21.16846
1671,19.620358
1672,24.477577
1673,15.796613
1674,16.713196
1675,17.551443
1676,23.1415
1677,18.162214
1678,22.693985
1679,23.175152
1680,19.28772
1681,24.890657
1682,16.40736
1683,18.800152
1684,23.03539
1685,29.17734
1686,26.141293
1687,21.454954
1688,21.750767
1689,25.102224
1690,23.409853
1691,20.416048
1692,19.752531
1693,22.047625
1694,22.378487
1695,21.145325
1696,24.055515
1697,23.74733
1698,22.395468
1699,20.750238
1700,24.14075
1701,24.712868
1702,25.77992
1703,29.529171
1704,19.31684
1705,21.24796
1706,25.10394
1707,37.02335
1708,43.137333
1709,21.86727
1710,21.855637
1711,17.436523
1712,31.48427
1713,20.26544
1714,20.634031
1715,21.836155
1716,22.661833
1717,20.510506
1718,24.984114
1719,20.482964
1720,25.68376
1721,25.93142
1722,18.29731
1723,17.590063
1724,20.712847
1725,26.501467
1726,17.875069
1727,18.955318
1728,19.675756
1729,21.253458
1730,18.308414
1731,19.552433
1732,17.881866
1733,18.196371
1734,20.472897
1735,27.202028
1736,25.918844
1737,14.990751
1738,26.546045
1739,25.578556
1740,27.266266
1741,28.482838
1742,19.805237
1743,20.042137
1744,25.849033
1745,27.23307
1746,39.075752
1747,25.44099
1748,19.306664
1749,24.251999
1750,22.413183
1751,20.728575
1752,24.989275
1753,22.90333
1754,18.569157
1755,19.251652
1756,14.218168
1757,15.341405
1758,23.22433
1759,22.669493
1760,22.178936
1761,21.616165
1762,53.792553
1763,21.587069
1764,20.384014
1765,23.005169
1766,23.939444
1767,22.266544
1768,22.40431
1769,21.702215
1770,21.63254
1771,21.369915
1772,20.093464
1773,18.070848
1774,19.252317
1775,15.565607
1776,23.370596
1777,21.564486
1778,22.012072
1779,16.157858
1780,21.632854
1781,14.763881
1782,23.331137
1783,23.975986
1784,18.88377
1785,16.479029
1786,20.068445
1787,20.65478
1788,20.700424
1789,17.512325
1790,21.008415
1791,19.384314
1792,17.497675
1793,23.451319
1794,18.224234
1795,24.713778
1796,21.59299
1797,23.290865
1798,21.796026
1799,20.125948
1800,22.438967
1801,19.310814
1802,20.6498
1803,18.300665
1804,20.217234
1805,22.904032
1806,19.92378
1807,24.918236
1808,26.492302
1809,25.111113
1810,20.89663
1811,27.386585
1812,19.444382
1813,23.482464
1814,17.600706
1815,20.636393
1816,17.832705
1817,17.300875
1818,29.057293
1819,26.298899
1820,25.321712
1821,25.840816
1822,19.414188
1823,26.199675
1824,27.88676
1825,18.139488
1826,20.536396
1827,24.21944
1828,23.760601
1829,24.462444
1830,20.601368
1831,21.461565
1832,21.449072
1833,21.656643
1834,22.316093
1835,30.202671
1836,23.586563
1837,21.460175
1838,21.838833
1839,28.142073
1840,19.922256
1841,23.268232
1842,21.396719
1843,21.627232
1844,29.60057
1845,20.620886
1846,20.641376
1847,28.996212
1848,17.839153
1849,20.640593
1850,19.61872
1851,25.246689
1852,20.384604
1853,22.00765
1854,23.60274
1855,22.321466
1856,23.710855
1857,23.21592
1858,21.10577
1859,24.924849
1860,21.013857
1861,23.55595
1862,27.139406
1863,27.390804
1864,20.18792
1865,24.574594
1866,25.87422
1867,20.420128
1868,25.952738
1869,26.0193
1870,20.710535
1871,21.011385
1872,29.328878
1873,28.964813
1874,20.840425
1875,23.021627
1876,22.102188
1877,17.22749
1878,20.887897
1879,22.427927
1880,29.92952
1881,31.89278
1882,28.259258
1883,19.942493
1884,22.20247
1885,30.009806
1886,18.56889
1887,22.349041
1888,20.845572
1889,20.266958
1890,20.80739
1891,21.138165
1892,20.13666
1893,19.767406
1894,22.428692
1895,18.295277
1896,21.073498
1897,21.36569
1898,21.039268
1899,23.411118
1900,23.578232
1901,19.492863
1902,22.24113
1903,17.98235
1904,19.48661
1905,22.62953
1906,23.518204
1907,22.005268
1908,29.430317
1909,23.40467
1910,18.335365
1911,22.431318
1912,23.205572
1913,24.482986
1914,15.983988
1915,23.708982
1916,21.185402
1917,20.510561
1918,27.657988
1919,20.436134
1920,20.900793
1921,18.561937
1922,19.336374
1923,23.89791
1924,19.79271
1925,13.976164
1926,23.214138
1927,19.970957
1928,15.703674
1929,21.26396
1930,22.907503
1931,24.95297
1932,27.033499
1933,22.430096
1934,16.245646
1935,23.151695
1936,20.678871
1937,24.557524
1938,19.374699
1939,17.737106
1940,19.119333
1941,20.137072
1942,21.209791
1943,20.593319
1944,17.110868
1945,20.174463
1946,24.606913
1947,21.40869
1948,21.994585
1949,19.2363
1950,25.357527
1951,28.995989
1952,21.706356
1953,29.678967
1954,18.233305
1955,19.78777
1956,13.900663
1957,15.13581
1958,19.290026
1959,17.508438
1960,20.566576
1961,26.969748
1962,24.294674
1963,17.017462
1964,15.5772
1965,25.563484
1966,20.878912
1967,15.4946785
1968,16.35308
1969,27.046705
1970,18.542755
1971,19.522997
1972,13.214836
1973,18.526531
1974,19.313772
1975,16.177689
1976,21.053205
1977,21.25148
1978,26.545149
1979,14.879553
1980,16.557524
1981,14.732032
1982,14.8312645
1983,22.037666
1984,20.776426
1985,21.683426
1986,22.942495
1987,21.396498
1988,33.97459
1989,52.086983
1990,22.487103
1991,19.888876
1992,19.929918
1993,23.027485
1994,16.6091
1995,19.295593
1996,17.691114
1997,24.705006
1998,22.706604
1999,22.333792
2000,19.51231
2001,18.599264
2002,21.52493
2003,20.679361
2004,24.966625
2005,22.567738
2006,22.950096
2007,16.549713
2008,21.436115
2009,27.086924
2010,22.938961
2011,18.29885
2012,20.867311
2013,20.534084
2014,27.84941
2015,28.625786
2016,20.756521
2017,21.625496
2018,19.147717
2019,16.065525
2020,14.597254
2021,14.627378
2022,19.786144
2023,19.069502
2024,22.41588
2025,16.471066
2026,24.982325
2027,15.657487
2028,20.121841
2029,21.143309
2030,17.037643
2031,18.008665
2032,20.130392
2033,19.532269
2034,21.964962
2035,21.274471
2036,22.230206
2037,28.20219
2038,16.396002
2039,28.060066
2040,17.649904
2041,22.498535
2042,21.92449
2043,17.068514
2044,21.2493
2045,23.38648
2046,19.105577
2047,17.564604
2048,22.702148
2049,27.343307
2050,24.080887
2051,23.587955
2052,24.939339
2053,24.279854
2054,22.767399
2055,21.23929
2056,25.477665
2057,23.212753
2058,19.002796
2059,24.075558
2060,28.837402
2061,24.549747
2062,23.873392
2063,22.760954
2064,24.301144
2065,19.082891
2066,17.942278
2067,20.092825
2068,23.798786
2069,22.799555
2070,25.546265
2071,21.79146
2072,19.52548
2073,16.29481
2074,23.873363
2075,22.332886
2076,19.823683
2077,22.370049
2078,20.267458
2079,23.675264
2080,24.878199
2081,20.697966
2082,27.465778
2083,29.97192
2084,27.098692
2085,27.569191
2086,26.955673
2087,26.082052
2088,23.528246
2089,19.014719
2090,19.570196
2091,19.272644
2092,28.861954
2093,20.902985
2094,19.579475
2095,16.483904
2096,27.430002
2097,19.894943
2098,20.372786
2099,16.502947
2100,25.780636
2101,19.462564
2102,19.330542
2103,21.37743
2104,19.433205
2105,17.837137
2106,16.660982
2107,19.079422
2108,20.140429
2109,17.71672
2110,21.200735
2111,18.242298
2112,20.136963
2113,25.514727
2114,22.237171
2115,19.403048
2116,19.569468
2117,24.35957
2118,15.513598
2119,18.23805
2120,23.435741
2121,21.862356
2122,15.189551
2123,21.224768
2124,19.295006
2125,23.33262
2126,21.099974
2127,20.167713
2128,17.75496
2129,21.97911
2130,20.153954
2131,20.485615
2132,20.806427
2133,21.713743
2134,24.316404
2135,22.659006
2136,23.304008
2137,17.98042
2138,21.70473
2139,25.220528
2140,23.572378
2141,19.455687
2142,23.573149
2143,21.86477
2144,19.158892
2145,18.939653
2146,21.881256
2147,19.290642
2148,17.612177
2149,22.594238
2150,21.502207
2151,20.755568
2152,21.704416
2153,22.102465
2154,18.357779
2155,21.542269
2156,20.716335
2157,21.585396
2158,22.071527
2159,23.36354
2160,30.653675
2161,20.61038
2162,16.980295
2163,23.237703
2164,22.361403
2165,19.553774
2166,22.040548
2167,24.831295
2168,22.599884
2169,20.700895
2170,18.095366
2171,23.711054
2172,26.24838
2173,21.37684
2174,15.989967
2175,20.94657
2176,21.63843
2177,24.402737
2178,21.059984
2179,24.694368
2180,22.859959
2181,19.827988
2182,18.079432
2183,23.719437
2184,19.15846
2185,18.607088
2186,23.747717
2187,21.811823
2188,24.347954
2189,26.646822
2190,16.681623
2191,21.93317
2192,22.44301
2193,21.634176
2194,30.486902
2195,23.171658
2196,23.333126
2197,25.37654
2198,25.141851
2199,24.22232
2200,23.565916
2201,23.862713
2202,22.895824
2203,21.67445
2204,23.307177
2205,21.678679
2206,22.77791
2207,22.156128
2208,21.643236
2209,17.633968
2210,26.65052
2211,17.581383
2212,22.446985
2213,21.496014
2214,21.79606
2215,25.537537
2216,26.271368
2217,19.943392
2218,25.240322
2219,26.821268
2220,24.907396
2221,26.798931
2222,23.674805
2223,23.995935
2224,22.5109
2225,22.165445
2226,20.255093
2227,21.437382
2228,23.037146
2229,27.048092
2230,25.178566
2231,23.891045
2232,25.228006
2233,23.473106
2234,22.724058
2235,20.670696
2236,25.173971
2237,21.288849
2238,28.464252
2239,26.78167
2240,22.475317
2241,25.50692
2242,21.145248
2243,22.007956
2244,23.69312
2245,22.780228
2246,17.053886
2247,27.690105
2248,19.942368
2249,27.47438
2250,26.459455
2251,23.685287
2252,22.864983
2253,22.462
2254,22.668665
2255,23.754395
2256,23.107372
2257,23.417183
2258,19.918686
2259,18.646603
2260,24.304562
2261,20.3285
2262,20.66422
2263,19.144537
2264,16.55993
2265,22.1018
2266,22.095396
2267,26.565882
2268,23.12649
2269,24.748861
2270,20.18288
2271,23.728447
2272,18.278467
2273,20.996027
2274,22.703306
2275,21.195286
2276,23.841908
2277,25.279726
2278,24.608097
2279,17.718664
2280,23.612396
2281,24.241264
2282,23.144094
2283,24.76367
2284,28.245327
2285,26.104643
2286,15.292714
2287,25.021894
2288,26.62027
2289,20.935879
2290,29.663136
2291,20.218893
2292,23.703936
2293,21.681005
2294,20.200615
2295,20.193453
2296,23.210457
2297,25.00303
2298,25.366085
2299,24.581621
2300,23.890429
2301,15.632324
2302,21.084084
2303,18.190487
2304,21.3733
2305,15.611402
2306,24.053677
2307,22.636467
2308,26.984911
2309,21.944777
2310,20.631634
2311,15.31736
2312,22.14319
2313,19.656263
2314,20.288748
2315,22.509312
2316,27.585175
2317,15.0970545
2318,18.90379
2319,14.650787
2320,18.885254
2321,19.832571
2322,23.629974
2323,20.153585
2324,19.76317
2325,26.738724
2326,26.357986
2327,19.949974
2328,17.551817
2329,24.051918
2330,19.414978
2331,18.168913
2332,19.555681
2333,19.8753
2334,16.822378
2335,22.75323
2336,20.951553
2337,18.557585
2338,22.413794
2339,23.59723
2340,18.805855
2341,26.268587
2342,15.141788
2343,17.175615
2344,19.435423
2345,30.974388
2346,18.600847
2347,16.097982
2348,16.330883
2349,20.632055
2350,22.28593
2351,20.210173
2352,19.768122
2353,17.689035
2354,18.636065
2355,22.391142
2356,23.269995
2357,20.190796
2358,22.065884
2359,22.750443
2360,19.668684
2361,19.388779
2362,18.6867
2363,21.791918
2364,20.062302
2365,18.642227
2366,22.616
2367,19.534187
2368,21.603075
2369,23.339329
2370,19.895273
2371,16.37267
2372,23.047249
2373,24.359966
2374,26.287144
2375,22.83357
2376,24.717646
2377,17.474499
2378,23.469845
2379,24.977598
2380,24.659208
2381,16.724295
2382,22.048695
2383,18.169344
2384,19.157032
2385,25.868738
2386,22.86055
2387,24.186802
2388,23.406578
2389,27.288923
2390,17.709248
2391,20.300543
2392,18.86525
2393,23.787088
2394,19.895435
2395,23.596401
2396,22.633347
2397,17.44938
2398,23.279926
2399,21.313398
2400,18.86153
2401,18.852594
2402,20.493185
2403,21.10711
2404,20.411695
2405,26.47059
2406,18.100533
2407,16.538809
2408,20.164576
2409,21.838943
2410,21.244663
2411,19.48542
2412,21.122704
2413,17.898588
2414,22.231932
2415,20.478144
2416,21.113098
2417,18.07775
2418,17.82861
2419,19.829323
2420,19.064354
2421,16.637047
2422,20.177996
2423,18.889599
2424,19.460531
2425,20.335733
2426,23.013191
2427,16.950693
2428,17.725145
2429,15.320087
2430,17.512634
2431,18.35817
2432,21.91271
2433,18.284794
2434,18.850683
2435,15.488389
2436,22.268984
2437,18.338037
2438,16.602333
2439,21.639933
2440,18.013098
2441,17.60153
2442,18.719618
2443,18.424835
2444,17.622484
2445,21.505108
2446,22.269402
2447,15.710342
2448,19.43301
2449,17.88135
2450,21.852491
2451,20.213099
2452,19.951155
2453,22.038153
2454,16.391026
2455,16.36887
2456,21.322205
2457,16.194595
2458,20.93478
2459,18.024733
2460,18.844254
2461,18.694073
2462,19.807682
2463,17.856493
2464,19.097471
2465,18.884686
2466,20.851974
2467,19.618183
2468,18.369572
2469,18.443378
2470,18.685745
2471,18.996527
2472,23.971144
2473,20.77018
2474,22.505707
2475,17.544058
2476,20.212973
2477,19.525679
2478,20.067047
2479,19.730831
2480,17.425676
2481,20.693209
2482,19.553207
2483,19.414892
2484,20.045233
2485,18.45267
2486,20.715916
2487,19.055294
2488,20.308382
2489,17.464706
2490,19.434254
2491,18.98913
2492,18.017733
2493,20.072548
2494,19.528502
2495,18.567532
